{
  "total": 66090,
  "offset": 0,
  "next": 8,
  "data": [
    {
      "paperId": "1139070c61a690bf98ce81e440293e8d2dc5cf57",
      "externalIds": {
        "DBLP": "journals/corr/abs-2501-18594",
        "ArXiv": "2501.18594",
        "DOI": "10.48550/arXiv.2501.18594",
        "CorpusId": 275993931
      },
      "url": "https://www.semanticscholar.org/paper/1139070c61a690bf98ce81e440293e8d2dc5cf57",
      "title": "Foundational Models for 3D Point Clouds: A Survey and Outlook",
      "venue": "arXiv.org",
      "year": 2025,
      "referenceCount": 0,
      "citationCount": 11,
      "influentialCitationCount": 0,
      "openAccessPdf": {
        "url": "",
        "status": null,
        "license": null,
        "disclaimer": "Notice: Paper or abstract available at https://arxiv.org/abs/2501.18594, which is subject to the license by the author or copyright owner provided with this content. Please go to the source to verify the license and copyright information for your use."
      },
      "fieldsOfStudy": [
        "Computer Science"
      ],
      "tldr": {
        "model": "tldr@v2.0.0",
        "text": "A comprehensive overview of the state-of-the-art methods that utilize FMs for 3D visual understanding is presented, categorize and summarize use of different FMs for tasks such as perception tasks."
      },
      "authors": [
        {
          "authorId": "120464407",
          "name": "Vishal G. Thengane"
        },
        {
          "authorId": "2310779368",
          "name": "Xiatian Zhu"
        },
        {
          "authorId": "1692174",
          "name": "A. Bouzerdoum"
        },
        {
          "authorId": "2067103158",
          "name": "S. L. Phung"
        },
        {
          "authorId": "2310858119",
          "name": "Yunpeng Li"
        }
      ],
      "abstract": "The 3D point cloud representation plays a crucial role in preserving the geometric fidelity of the physical world, enabling more accurate complex 3D environments. While humans naturally comprehend the intricate relationships between objects and variations through a multisensory system, artificial intelligence (AI) systems have yet to fully replicate this capacity. To bridge this gap, it becomes essential to incorporate multiple modalities. Models that can seamlessly integrate and reason across these modalities are known as foundation models (FMs). The development of FMs for 2D modalities, such as images and text, has seen significant progress, driven by the abundant availability of large-scale datasets. However, the 3D domain has lagged due to the scarcity of labelled data and high computational overheads. In response, recent research has begun to explore the potential of applying FMs to 3D tasks, overcoming these challenges by leveraging existing 2D knowledge. Additionally, language, with its capacity for abstract reasoning and description of the environment, offers a promising avenue for enhancing 3D understanding through large pre-trained language models (LLMs). Despite the rapid development and adoption of FMs for 3D vision tasks in recent years, there remains a gap in comprehensive and in-depth literature reviews. This article aims to address this gap by presenting a comprehensive overview of the state-of-the-art methods that utilize FMs for 3D visual understanding. We start by reviewing various strategies employed in the building of various 3D FMs. Then we categorize and summarize use of different FMs for tasks such as perception tasks. Finally, the article offers insights into future directions for research and development in this field. To help reader, we have curated list of relevant papers on the topic: https://github.com/vgthengane/Awesome-FMs-in-3D."
    },
    {
      "paperId": "c9202c0e631bb280430b1c65cd8737aad08422a8",
      "externalIds": {
        "ArXiv": "2404.07476",
        "DBLP": "journals/inffus/WangWYJLDW24",
        "DOI": "10.1016/j.inffus.2024.102321",
        "CorpusId": 267998848
      },
      "url": "https://www.semanticscholar.org/paper/c9202c0e631bb280430b1c65cd8737aad08422a8",
      "title": "The Survey on Multi-Source Data Fusion in Cyber-Physical-Social Systems: Foundational Infrastructure for Industrial Metaverses and Industries 5.0",
      "venue": "Information Fusion",
      "year": 2024,
      "referenceCount": 184,
      "citationCount": 29,
      "influentialCitationCount": 0,
      "openAccessPdf": {
        "url": "",
        "status": null,
        "license": null,
        "disclaimer": "Notice: Paper or abstract available at https://arxiv.org/abs/2404.07476, which is subject to the license by the author or copyright owner provided with this content. Please go to the source to verify the license and copyright information for your use."
      },
      "fieldsOfStudy": [
        "Computer Science"
      ],
      "tldr": {
        "model": "tldr@v2.0.0",
        "text": "A multi-source-data-fusion-driven operational architecture for industrial metaverses that combines the strengths of deep learning and knowledge graphs in scalability and parallel computation to enable the ability of prescriptive optimization and evolution is proposed."
      },
      "authors": [
        {
          "authorId": "2281863390",
          "name": "Xiao Wang"
        },
        {
          "authorId": "2108070100",
          "name": "Yutong Wang"
        },
        {
          "authorId": "2181373119",
          "name": "Jing Yang"
        },
        {
          "authorId": "2287509906",
          "name": "Xiaofeng Jia"
        },
        {
          "authorId": "2287042161",
          "name": "Lijun Li"
        },
        {
          "authorId": "2363520590",
          "name": "Weiping Ding"
        },
        {
          "authorId": "2281911259",
          "name": "Fei-Yue Wang"
        }
      ],
      "abstract": "As the concept of Industries 5.0 develops, industrial metaverses are expected to operate in parallel with the actual industrial processes to offer ``Human-Centric\"Safe, Secure, Sustainable, Sensitive, Service, and Smartness ``6S\"manufacturing solutions. Industrial metaverses not only visualize the process of productivity in a dynamic and evolutional way, but also provide an immersive laboratory experimental environment for optimizing and remodeling the process. Besides, the customized user needs that are hidden in social media data can be discovered by social computing technologies, which introduces an input channel for building the whole social manufacturing process including industrial metaverses. This makes the fusion of multi-source data cross Cyber-Physical-Social Systems (CPSS) the foundational and key challenge. This work firstly proposes a multi-source-data-fusion-driven operational architecture for industrial metaverses on the basis of conducting a comprehensive literature review on the state-of-the-art multi-source data fusion methods. The advantages and disadvantages of each type of method are analyzed by considering the fusion mechanisms and application scenarios. Especially, we combine the strengths of deep learning and knowledge graphs in scalability and parallel computation to enable our proposed framework the ability of prescriptive optimization and evolution. This integration can address the shortcomings of deep learning in terms of explainability and fact fabrication, as well as overcoming the incompleteness and the challenges of construction and maintenance inherent in knowledge graphs. The effectiveness of the proposed architecture is validated through a parallel weaving case study. In the end, we discuss the challenges and future directions of multi-source data fusion cross CPSS for industrial metaverses and social manufacturing in Industries 5.0."
    },
    {
      "paperId": "8135d93c18222177c8a77fcfec549d227027ab22",
      "externalIds": {
        "DBLP": "journals/access/KuppanAB24",
        "DOI": "10.1109/ACCESS.2024.3509918",
        "CorpusId": 274451017
      },
      "url": "https://www.semanticscholar.org/paper/8135d93c18222177c8a77fcfec549d227027ab22",
      "title": "Foundational AI in Insurance and Real Estate: A Survey of Applications, Challenges, and Future Directions",
      "venue": "IEEE Access",
      "year": 2024,
      "referenceCount": 0,
      "citationCount": 15,
      "influentialCitationCount": 1,
      "openAccessPdf": {
        "url": "",
        "status": null,
        "license": null,
        "disclaimer": "Notice: The following paper fields have been elided by the publisher: {'tldr'}. Paper or abstract available at https://api.unpaywall.org/v2/10.1109/ACCESS.2024.3509918?email=<INSERT_YOUR_EMAIL> or https://doi.org/10.1109/ACCESS.2024.3509918, which is subject to the license by the author or copyright owner provided with this content. Please go to the source to verify the license and copyright information for your use."
      },
      "fieldsOfStudy": [
        "Computer Science"
      ],
      "tldr": null,
      "authors": [
        {
          "authorId": "2327269983",
          "name": "Karthigeyan Kuppan"
        },
        {
          "authorId": "2334769712",
          "name": "Deepak Bhaskar Acharya"
        },
        {
          "authorId": "2309521585",
          "name": "D. B"
        }
      ],
      "abstract": "This paper provides a comprehensive survey on the applications, challenges, and future directions of Artificial Intelligence (AI) in the insurance and real estate sectors. We explore key AI-driven solutions, such as advanced risk assessment, predictive analytics for fraud detection, and smart building management, highlighting their impact on enhancing operational efficiency and decision-making processes. The survey covers a wide range of AI techniques, including machine learning, deep learning, and natural language processing, and discusses their specific applications within these industries. We address critical challenges, such as data quality issues, the need for model interpretability, regulatory compliance, and integration with existing systems. Additionally, we identify emerging trends, such as the adoption of reinforcement learning for dynamic pricing and the use of AI for personalized insurance products. The paper concludes by outlining significant research gaps and proposing a roadmap for future work, aimed at guiding the development of more robust, explainable, and ethically sound AI applications in insurance and real estate."
    },
    {
      "paperId": "584ca135b61482fd89247113da87d784f738dbfa",
      "externalIds": {
        "ArXiv": "2307.13721",
        "DBLP": "journals/corr/abs-2307-13721",
        "DOI": "10.48550/arXiv.2307.13721",
        "CorpusId": 260164769
      },
      "url": "https://www.semanticscholar.org/paper/584ca135b61482fd89247113da87d784f738dbfa",
      "title": "Foundational Models Defining a New Era in Vision: A Survey and Outlook",
      "venue": "arXiv.org",
      "year": 2023,
      "referenceCount": 364,
      "citationCount": 161,
      "influentialCitationCount": 8,
      "openAccessPdf": {
        "url": "https://arxiv.org/pdf/2307.13721",
        "status": "GREEN",
        "license": null,
        "disclaimer": "Notice: Paper or abstract available at https://arxiv.org/abs/2307.13721, which is subject to the license by the author or copyright owner provided with this content. Please go to the source to verify the license and copyright information for your use."
      },
      "fieldsOfStudy": [
        "Computer Science"
      ],
      "tldr": {
        "model": "tldr@v2.0.0",
        "text": "A comprehensive review of emerging foundational models in computer vision, including typical architecture designs to combine different modalities, training objectives, pre-training datasets, fine-tuning mechanisms, and the common prompting patterns; textual, visual, and heterogeneous."
      },
      "authors": [
        {
          "authorId": "144987292",
          "name": "Muhammad Awais"
        },
        {
          "authorId": "40894826",
          "name": "Muzammal Naseer"
        },
        {
          "authorId": "2111180748",
          "name": "Salman Siddique Khan"
        },
        {
          "authorId": "3288214",
          "name": "R. Anwer"
        },
        {
          "authorId": "2951229",
          "name": "Hisham Cholakkal"
        },
        {
          "authorId": "2111863589",
          "name": "M. Shah"
        },
        {
          "authorId": "152790163",
          "name": "Ming Yang"
        },
        {
          "authorId": "2358803",
          "name": "F. Khan"
        }
      ],
      "abstract": "Vision systems to see and reason about the compositional nature of visual scenes are fundamental to understanding our world. The complex relations between objects and their locations, ambiguities, and variations in the real-world environment can be better described in human language, naturally governed by grammatical rules and other modalities such as audio and depth. The models learned to bridge the gap between such modalities coupled with large-scale training data facilitate contextual reasoning, generalization, and prompt capabilities at test time. These models are referred to as foundational models. The output of such models can be modified through human-provided prompts without retraining, e.g., segmenting a particular object by providing a bounding box, having interactive dialogues by asking questions about an image or video scene or manipulating the robot's behavior through language instructions. In this survey, we provide a comprehensive review of such emerging foundational models, including typical architecture designs to combine different modalities (vision, text, audio, etc), training objectives (contrastive, generative), pre-training datasets, fine-tuning mechanisms, and the common prompting patterns; textual, visual, and heterogeneous. We discuss the open challenges and research directions for foundational models in computer vision, including difficulties in their evaluations and benchmarking, gaps in their real-world understanding, limitations of their contextual understanding, biases, vulnerability to adversarial attacks, and interpretability issues. We review recent developments in this field, covering a wide range of applications of foundation models systematically and comprehensively. A comprehensive list of foundational models studied in this work is available at \\url{https://github.com/awaisrauf/Awesome-CV-Foundational-Models}."
    },
    {
      "paperId": "880c3ebc785790d5c49cfcb971d4bb45a09eaab4",
      "externalIds": {
        "MAG": "3159224890",
        "DOI": "10.1080/87568225.2021.1913686",
        "CorpusId": 235501099
      },
      "url": "https://www.semanticscholar.org/paper/880c3ebc785790d5c49cfcb971d4bb45a09eaab4",
      "title": "Embedded Therapists: Who Do They Serve? How are They Funded? And Where are They Housed? A Foundational Survey of Emerging Models",
      "venue": "Journal of College Student Psychotherapy",
      "year": 2021,
      "referenceCount": 22,
      "citationCount": 7,
      "influentialCitationCount": 1,
      "openAccessPdf": {
        "url": "",
        "status": null,
        "license": null,
        "disclaimer": "Notice: Paper or abstract available at https://api.unpaywall.org/v2/10.1080/87568225.2021.1913686?email=<INSERT_YOUR_EMAIL> or https://doi.org/10.1080/87568225.2021.1913686, which is subject to the license by the author or copyright owner provided with this content. Please go to the source to verify the license and copyright information for your use."
      },
      "fieldsOfStudy": null,
      "tldr": null,
      "authors": [
        {
          "authorId": "49277250",
          "name": "Barry A. Schreier"
        },
        {
          "authorId": "2000907075",
          "name": "Cari L. Anderson"
        },
        {
          "authorId": "119202712",
          "name": "P. Galligan"
        },
        {
          "authorId": "52119946",
          "name": "Brittany Greenbaum"
        },
        {
          "authorId": "117161426",
          "name": "J. Corkery"
        },
        {
          "authorId": "2114251906",
          "name": "Teri Schnelle"
        },
        {
          "authorId": "2003292994",
          "name": "Chelsey Gates"
        },
        {
          "authorId": "73688039",
          "name": "Jung Eui Hong"
        },
        {
          "authorId": "4414155",
          "name": "D. Kivlighan"
        }
      ],
      "abstract": "ABSTRACT With the rise in demand for mental health services on college and university campuses, counseling centers have engaged in numerous creative methods to expand services to meet these increasing demands. One approach within campus counseling centers, with promise, is embedded therapists. Despite the increasing application of embedded therapists, there is a paucity of research to inform the development and implementation of this innovative service method on college and university campuses. This study serves as a foundational survey of college and university counseling centers’ embedded therapists to establish foundational data on defining features of emerging embedded models. Data for this study consisted of 39 college and university counseling center directors who provided information on 105 embedded therapists via a Qaultrics survey. Embedded therapists differed regarding who they served, where they were housed, source of funding, and various other system-level factors. The results of this study are discussed regarding commonalities and differences across emerging models of embedded programs."
    },
    {
      "paperId": "8e5d42f5b98146d0784fe85e29c768a4989e1478",
      "externalIds": {
        "ArXiv": "2310.18689",
        "DBLP": "journals/corr/abs-2310-18689",
        "DOI": "10.48550/arXiv.2310.18689",
        "CorpusId": 264590167
      },
      "url": "https://www.semanticscholar.org/paper/8e5d42f5b98146d0784fe85e29c768a4989e1478",
      "title": "Foundational Models in Medical Imaging: A Comprehensive Survey and Future Vision",
      "venue": "arXiv.org",
      "year": 2023,
      "referenceCount": 92,
      "citationCount": 118,
      "influentialCitationCount": 4,
      "openAccessPdf": {
        "url": "",
        "status": null,
        "license": null,
        "disclaimer": "Notice: Paper or abstract available at https://arxiv.org/abs/2310.18689, which is subject to the license by the author or copyright owner provided with this content. Please go to the source to verify the license and copyright information for your use."
      },
      "fieldsOfStudy": [
        "Computer Science"
      ],
      "tldr": {
        "model": "tldr@v2.0.0",
        "text": "A methodical taxonomy of foundation models within the medical domain is offered, proposing a classification system primarily structured around training strategies, while also incorporating additional facets such as application domains, imaging modalities, specific organs of interest, and the algorithms integral to these models."
      },
      "authors": [
        {
          "authorId": "2262442826",
          "name": "Bobby Azad"
        },
        {
          "authorId": "1763181",
          "name": "Reza Azad"
        },
        {
          "authorId": "2143241060",
          "name": "Sania Eskandari"
        },
        {
          "authorId": "9345245",
          "name": "Afshin Bozorgpour"
        },
        {
          "authorId": "2131612425",
          "name": "A. Kazerouni"
        },
        {
          "authorId": "3243720",
          "name": "I. Rekik"
        },
        {
          "authorId": "1737693",
          "name": "D. Merhof"
        }
      ],
      "abstract": "Foundation models, large-scale, pre-trained deep-learning models adapted to a wide range of downstream tasks have gained significant interest lately in various deep-learning problems undergoing a paradigm shift with the rise of these models. Trained on large-scale dataset to bridge the gap between different modalities, foundation models facilitate contextual reasoning, generalization, and prompt capabilities at test time. The predictions of these models can be adjusted for new tasks by augmenting the model input with task-specific hints called prompts without requiring extensive labeled data and retraining. Capitalizing on the advances in computer vision, medical imaging has also marked a growing interest in these models. To assist researchers in navigating this direction, this survey intends to provide a comprehensive overview of foundation models in the domain of medical imaging. Specifically, we initiate our exploration by providing an exposition of the fundamental concepts forming the basis of foundation models. Subsequently, we offer a methodical taxonomy of foundation models within the medical domain, proposing a classification system primarily structured around training strategies, while also incorporating additional facets such as application domains, imaging modalities, specific organs of interest, and the algorithms integral to these models. Furthermore, we emphasize the practical use case of some selected approaches and then discuss the opportunities, applications, and future directions of these large-scale pre-trained models, for analyzing medical images. In the same vein, we address the prevailing challenges and research pathways associated with foundational models in medical imaging. These encompass the areas of interpretability, data management, computational requirements, and the nuanced issue of contextual comprehension."
    },
    {
      "paperId": "09d8841eeb362a2c04f055f70f16d634093c83bc",
      "externalIds": {
        "DBLP": "journals/access/AcharyaKB25",
        "DOI": "10.1109/ACCESS.2025.3532853",
        "CorpusId": 275830329
      },
      "url": "https://www.semanticscholar.org/paper/09d8841eeb362a2c04f055f70f16d634093c83bc",
      "title": "Agentic AI: Autonomous Intelligence for Complex Goals—A Comprehensive Survey",
      "venue": "IEEE Access",
      "year": 2025,
      "referenceCount": 101,
      "citationCount": 442,
      "influentialCitationCount": 23,
      "openAccessPdf": {
        "url": "https://doi.org/10.1109/access.2025.3532853",
        "status": "GOLD",
        "license": "CCBY",
        "disclaimer": "Notice: Paper or abstract available at https://api.unpaywall.org/v2/10.1109/ACCESS.2025.3532853?email=<INSERT_YOUR_EMAIL> or https://doi.org/10.1109/ACCESS.2025.3532853, which is subject to the license by the author or copyright owner provided with this content. Please go to the source to verify the license and copyright information for your use."
      },
      "fieldsOfStudy": [
        "Computer Science"
      ],
      "tldr": {
        "model": "tldr@v2.0.0",
        "text": "This survey thoroughly explores the foundational concepts, unique characteristics, and core methodologies driving the development of Agentic AI, and outlines a framework for safely and effectively integrating Agentic AI into society."
      },
      "authors": [
        {
          "authorId": "2064564791",
          "name": "D. Acharya"
        },
        {
          "authorId": "2327269983",
          "name": "Karthigeyan Kuppan"
        },
        {
          "authorId": "2329573117",
          "name": "Divya Bhaskaracharya"
        }
      ],
      "abstract": "Agentic AI, an emerging paradigm in artificial intelligence, refers to autonomous systems designed to pursue complex goals with minimal human intervention. Unlike traditional AI, which depends on structured instructions and close oversight, Agentic AI demonstrates adaptability, advanced decision-making capabilities and self-sufficiency, enabling it to operate dynamically in evolving environments. This survey thoroughly explores the foundational concepts, unique characteristics, and core methodologies driving the development of Agentic AI. We examine its current and potential applications across various fields, including healthcare, finance, and adaptive software systems, emphasizing the advantages of deploying agentic systems in real-world scenarios. The paper also addresses the ethical challenges posed by Agentic AI, proposing solutions for goal alignment, resource constraints, and environmental adaptability. We outline a framework for safely and effectively integrating Agentic AI into society, highlighting the need for further research on ethical considerations to ensure beneficial societal impacts. This survey serves as a comprehensive introduction to Agentic AI, guiding researchers, developers, and policymakers in engaging with its transformative potential responsibly and creatively."
    },
    {
      "paperId": "193968640e857c9300a0a5eebc1eb3b10c58335e",
      "externalIds": {
        "DBLP": "journals/semweb/TrojahnVSPG22",
        "DOI": "10.3233/sw-210447",
        "CorpusId": 221794651
      },
      "url": "https://www.semanticscholar.org/paper/193968640e857c9300a0a5eebc1eb3b10c58335e",
      "title": "Foundational ontologies meet ontology matching: A survey",
      "venue": "Semantic Web",
      "year": 2021,
      "referenceCount": 95,
      "citationCount": 45,
      "influentialCitationCount": 0,
      "openAccessPdf": {
        "url": "https://content.iospress.com:443/download/semantic-web/sw210447?id=semantic-web%2Fsw210447",
        "status": "HYBRID",
        "license": "unspecified-oa",
        "disclaimer": "Notice: Paper or abstract available at https://api.unpaywall.org/v2/10.3233/sw-210447?email=<INSERT_YOUR_EMAIL> or https://doi.org/10.3233/sw-210447, which is subject to the license by the author or copyright owner provided with this content. Please go to the source to verify the license and copyright information for your use."
      },
      "fieldsOfStudy": [
        "Computer Science"
      ],
      "tldr": {
        "model": "tldr@v2.0.0",
        "text": "An overview of the different tasks involved in ontology matching that consider foundational ontologies is presented and the strengths and weaknesses of existing proposals are discussed and the challenges to be addressed in the future are highlighted."
      },
      "authors": [
        {
          "authorId": "3469495",
          "name": "C. Trojahn"
        },
        {
          "authorId": "144845513",
          "name": "R. Vieira"
        },
        {
          "authorId": "1742323520",
          "name": "Daniela Schmidt"
        },
        {
          "authorId": "144689887",
          "name": "A. Pease"
        },
        {
          "authorId": "1732239",
          "name": "G. Guizzardi"
        }
      ],
      "abstract": "Ontology matching is a research area aimed at finding ways to make different ontologies interoperable. Solutions to the problem have been proposed from different disciplines, including databases, natural language processing, and machine learning. The role of foundational ontologies for ontology matching is an important one, as they provide a well-founded reference model that can be shared across domains. It is multifaceted and with room for development. This paper presents an overview of the different tasks involved in ontology matching that consider foundational ontologies. We discuss the strengths and weaknesses of existing proposals and highlight the challenges to be addressed in the future."
    }
  ]
}